{
  "data": {
    "timer": 0,
    "textColor":"#bdac7e",
    "questions": [
      {
        "text": "Which U.A. High School student possesses both fire and ice Quirks?",
        "options": [
          "Eijiro Kirishima",
          "Tsuyu Asui",
          "Tenya Iida",
          "Shoto Todoroki"
        ],
        "answer": "Shoto Todoroki"
      },
      {
        "text": "What is the name of the League of Villains' leader, who seeks to destroy the current hero society?",
        "options": ["Dabi", "Stain", "Overhaul", "Tomura Shigaraki"],
        "answer": "Tomura Shigaraki"
      },
      {
        "text": "Which character has the ability to erase other people's Quirks by looking at them?",
        "options": [
          "Present Mic",
          "Shota Aizawa (Eraser Head)",
          "Tomura Shigaraki",
          "Tsuyu Asui"
        ],
        "answer": "Shota Aizawa (Eraser Head)"
      },
      {
        "text": "Which pro hero has a special Quirk called Half-Cold Half-Hot?",
        "options": ["Ingenium", "Endeavor", "Mt. Lady", "Dabi"],
        "answer": "Endeavor"
      },
      {
        "text": "What is the ultimate goal of the Hero Killer, Stain, in the series?",
        "options": [
          "To become a pro hero",
          "To eliminate all heroes he deems unworthy",
          "To take over the League of Villains",
          "To obtain the power of One For All"
        ],
        "answer": "To eliminate all heroes he deems unworthy"
      }
    ],
    "backgroundImageURL": "https://images3.alphacoders.com/859/859804.png"
  }
}
