{
    "type": "APL",
    "version": "2023.2",
    "license": "Copyright 2023 Amazon.com, Inc. or its affiliates. All Rights Reserved.\nSPDX-License-Identifier: LicenseRef-.amazon.com.-AmznSL-1.0\nLicensed under the Amazon Software License  http://aws.amazon.com/asl/",
    "settings": {},
    "theme": "dark",
    "import": [
        {
            "name": "alexa-layouts",
            "version": "1.5.0"
        }
    ],
    "resources": [
        {
            "description": "Hub Landscape Large",
            "dimensions": {
                "textSize": "150"
            }
        },
        {
            "when": "${@viewportProfile == @hubRoundSmall}",
            "description": "Hub Round Small",
            "dimensions": {
                "textSize": "60"
            }
        },
        {
            "when": "${@viewportSizeClass == @viewportClassMediumSmall}",
            "description": "Hub Landscape Medium",
            "dimensions": {
                "textSize": "150"
            }
        },
        {
            "when": "${@viewportSizeClass == @viewportClassSmallMedium}",
            "description": "Mobile Small",
            "dimensions" : {
                "textSize":"100"
            }
        }
    ],
    "styles": {},
    "onMount": [],
    "graphics": {},
    "commands": {},
    "layouts": {},
    "mainTemplate": {
        "parameters": [
            "payload"
        ],
        "items": [
            {
                "type": "Container",
                "alignItems": "center",
                "justifyContent": "center",
                "item": [
                    {
                        "type": "AlexaBackground",
                        "width": "100%",
                        "heigth": "100%",
                        "opacity": "0.5",
                        "backgroundImageSource": "${payload.data.backgroundImageURL}"
                    },
                    {
                        "type": "Text",
                        "text": "THANK YOU",
                        "fontSize": "@textSize",
                        "width": "70%",
                        "textAlign": "center",
                        "letterSpacing": "10",
                        "fontWeight": "bold"
                    }
                ]
            }
        ]
    }
}